<svg class="icon" viewBox="0 0 100 100" xmlns="http://www.w3.org/2000/svg" aria-hidden="true" role="img">
<defs>
<linearGradient id="grad">
  <stop offset="50%" stop-color="#05F"/>
  <stop offset="95%" stop-color="#0f0"/>
</linearGradient>
</defs>
<path d="M60.81 93.78c-11 .58-21.31-7.29-24.1-18.29a25.74 25.74 0 013.36-20.91c.25-.37.41-1 1-.89.44.11.35.65.39 1 1.11 8.36 5.88 14.19 13.12 18 10.3 5.39 20.77 5.12 31.18.13 1-.48 2.12-1.51 3.18-.37s0 2.3-.6 3.28c-5.56 8.52-12.71 15-22.94 17.42-1 .23-2 .4-3 .55-.47.05-1.03.08-1.59.08z" fill="#00a"/>
<g fill="url('#grad')">
<path d="M51.82 42.22c2.29.48-11.15-10.67-27.69-8.16-5.76.87-19 5.86-17.89 23.66C8.23 89.66 34.15 94.33 42.78 95a1 1 0 001.08-.92 1 1 0 00-.3-.8C39 88.87 26.39 81.09 29.22 65.05c2.54-14.49 12.94-24.87 22.6-22.83z"/><path d="M62.11 62.19c3.76 1.3 9.77 2 18.76-.24h.06a19.87 19.87 0 0012.61-15.47C96.08 29.11 81.44 5.8 55.82 5 20.3 4 10.55 27.14 8.69 32.85a.39.39 0 00.61.43c4.13-3.3 20.86-14.69 41.62-1.64C62.68 41 61.21 50.39 59.09 55.43a5 5 0 002.65 6.62z"  /></g></svg>
